# ACTS Test Suite Generation: Wed Mar 29 20:19:12 CEST 2023
#  '*' represents don't care value 
# Degree of interaction coverage: 2
# Number of parameters: 5
# Maximum number of values per parameter: 3
# Number of configurations: 9
Registration,Name_Lastname,Destination,Date_of_birth,Discount
false,Null,New York,15.12.2001,Důchodce
true,Null,Berlin,8/22/2001,Slevový kupón
false,Null,Berlin,2001-11-28,Student
true,汉字@,New York,15.12.2001,Slevový kupón
false,汉字@,New York,8/22/2001,Student
true,汉字@,Berlin,2001-11-28,Důchodce
true,Pepa,Berlin,15.12.2001,Student
false,Pepa,New York,8/22/2001,Důchodce
false,Pepa,New York,2001-11-28,Slevový kupón
